Main PCS scraping function — query_pcs • pcs
…
#> Peter Sagan
#> Peter Sagan 2021
#> Adam Yates
#> Adam Yates 2021
#> $profiles
#> # A tibble: 2 x 12
#>   rider   dob        nationality  pob   current_team weight height one_day_races
#>   <chr>   <date>     <chr>        <chr> <chr>         <dbl>  <dbl>         <dbl>
#> 1 Adam Y… 1992-08-07 Great Brita… ""    INEOS Grena…     58   1.73          1289
#> 2 Peter … 1990-01-26 Slovakia     "Žil… BORA - hans…     78   1.84          9095
#> # … with 4 more variables: gc <dbl>, tt <dbl>, sprint <dbl>, climber <dbl>
#> 
#> $results
#> # A tibble: 68 x 10
#>    date                result gc_result_on_sta… race          distance pointspcs
#>    <dttm>               <dbl>             <int> <chr>            <dbl>     <int>
#>  1 2021-04-25 00:00:00     18                NA Liège-Bastog…     259.        24
#>  2 2021-04-21 00:00:00     20                NA La Flèche Wa…     194.        15
#>  3 NA                      13                NA Itzulia Basq…      NA         NA
#>  4 NA                       7                NA Itzulia Basq…      NA         NA
#>  5 NA                       4                NA Itzulia Basq…      NA        140
#>  6 2021-04-10 00:00:00      4                NA Itzulia Basq…     112.        13
#>  7 2021-04-09 00:00:00     53                 6 Itzulia Basq…     160.        NA
#>  8 2021-04-08 00:00:00     25                 6 Itzulia Basq…     189.        NA
#>  9 2021-04-07 00:00:00      4                 4 Itzulia Basq…     168.        13
#> 10 2021-04-06 00:00:00     13                 5 Itzulia Basq…     155.        NA
#> # … with 58 more rows, and 4 more variables: pointsuci <int>, stage <chr>,
#> #   rider <chr>, team <chr>
…
#> Peter Sagan 2021
#> Peter Sagan 2020
#> Adam Yates
#> Adam Yates 2021
#> Adam Yates 2020
#> $profiles
#> # A tibble: 2 x 12
#>   rider   dob        nationality  pob   current_team weight height one_day_races
#>   <chr>   <date>     <chr>        <chr> <chr>         <dbl>  <dbl>         <dbl>
#> 1 Adam Y… 1992-08-07 Great Brita… ""    INEOS Grena…     58   1.73          1289
#> 2 Peter … 1990-01-26 Slovakia     "Žil… BORA - hans…     78   1.84          9095
#> # … with 4 more variables: gc <dbl>, tt <dbl>, sprint <dbl>, climber <dbl>
#> 
#> $results
#> # A tibble: 176 x 10
#>    date                result gc_result_on_sta… race          distance pointspcs
#>    <dttm>               <dbl>             <int> <chr>            <dbl>     <int>
#>  1 2021-04-25 00:00:00     18                NA Liège-Bastog…     259.        24
#>  2 2021-04-21 00:00:00     20                NA La Flèche Wa…     194.        15
#>  3 NA                      13                NA Itzulia Basq…      NA         NA
#>  4 NA                       7                NA Itzulia Basq…      NA         NA
#>  5 NA                       4                NA Itzulia Basq…      NA        140
#>  6 2021-04-10 00:00:00      4                NA Itzulia Basq…     112.        13
#>  7 2021-04-09 00:00:00     53                 6 Itzulia Basq…     160.        NA
#>  8 2021-04-08 00:00:00     25                 6 Itzulia Basq…     189.        NA
#>  9 2021-04-07 00:00:00      4                 4 Itzulia Basq…     168.        13
#> 10 2021-04-06 00:00:00     13                 5 Itzulia Basq…     155.        NA
#> # … with 166 more rows, and 4 more variables: pointsuci <int>, stage <chr>,
#> #   rider <chr>, team <chr>
…
#> Adam Yates 2013
#> Adam Yates 2012
#> Adam Yates 2011
#> Adam Yates 2010
#> Adam Yates 2009
#> $profiles
#> # A tibble: 2 x 12
#>   rider   dob        nationality  pob   current_team weight height one_day_races
#>   <chr>   <date>     <chr>        <chr> <chr>         <dbl>  <dbl>         <dbl>
#> 1 Adam Y… 1992-08-07 Great Brita… ""    INEOS Grena…     58   1.73          1289
#> 2 Peter … 1990-01-26 Slovakia     "Žil… BORA - hans…     78   1.84          9095
#> # … with 4 more variables: gc <dbl>, tt <dbl>, sprint <dbl>, climber <dbl>
#> 
#> $results
#> # A tibble: 1,798 x 10
#>    date                result gc_result_on_sta… race          distance pointspcs
#>    <dttm>               <dbl>             <int> <chr>            <dbl>     <int>
#>  1 2021-04-25 00:00:00     18                NA Liège-Bastog…     259.        24
#>  2 2021-04-21 00:00:00     20                NA La Flèche Wa…     194.        15
#>  3 NA                      13                NA Itzulia Basq…      NA         NA
#>  4 NA                       7                NA Itzulia Basq…      NA         NA
#>  5 NA                       4                NA Itzulia Basq…      NA        140
#>  6 2021-04-10 00:00:00      4                NA Itzulia Basq…     112.        13
#>  7 2021-04-09 00:00:00     53                 6 Itzulia Basq…     160.        NA
#>  8 2021-04-08 00:00:00     25                 6 Itzulia Basq…     189.        NA
#>  9 2021-04-07 00:00:00      4                 4 Itzulia Basq…     168.        13
#> 10 2021-04-06 00:00:00     13                 5 Itzulia Basq…     155.        NA
#> # … with 1,788 more rows, and 4 more variables: pointsuci <dbl>, stage <chr>,
#> #   rider <chr>, team <chr>
…
